<?xml version="1.0" encoding="UTF-8"?>
<svg width="197px" height="53px" viewBox="0 0 197 53" version="1.1" xmlns="http://www.w3.org/2000/svg" xmlns:xlink="http://www.w3.org/1999/xlink">
    <!-- Generator: Sketch 61.2 (89653) - https://sketch.com -->
    <title>Logo Copy 2</title>
    <desc>Created with Sketch.</desc>
    <g id="Dashboard" stroke="none" stroke-width="1" fill="none" fill-rule="evenodd">
        <g id="Overview-Copy" transform="translate(-102.000000, -21.000000)">
            <g id="Logo-Copy-2" transform="translate(102.000000, 21.000000)">
                <g id="Logo-image">
                    <circle id="Oval" fill="#4A71E1" cx="26.5" cy="26.5" r="26.5"></circle>
                    <g id="icon-scros" transform="translate(11.000000, 14.000000)" fill="#FFFFFF" fill-rule="nonzero">
                        <path d="M11.2308147,10.2693984 C10.7116446,9.81667299 10.4296648,8.90550586 10.605318,8.2454718 C10.605318,8.2454718 11.303257,5.60952742 9.83454714,4.17094277 C8.19524725,2.5654442 3.07170483,-1.20993543 0.734076426,1.07769997 C-1.60588882,3.36571645 2.25224962,8.37923159 3.89427583,9.98320583 C5.36298571,11.4214094 8.05815208,10.7362239 8.05815208,10.7362239 C8.73038577,10.5643559 9.6612308,10.8391161 10.1254849,11.3482417 C10.1254849,11.3482417 21.7626057,24.0916246 22.4652184,24.7775722 C23.4124214,25.7043637 24.7378045,25.9097669 25.4252277,25.2371572 C26.1126509,24.5630231 25.902724,23.2677253 24.955521,22.3409338 C24.2556346,21.6568915 11.2308147,10.2693984 11.2308147,10.2693984 Z M4.30127711,22.7071536 C3.35290571,23.6350883 3.14453664,24.9303861 3.83195985,25.603377 C4.52094096,26.27713 5.84359775,26.0717268 6.79196915,25.1449353 C7.17170719,24.7733803 10.7424131,20.8840572 13.9450653,17.3845809 C13.3853899,16.7725632 12.840904,16.1757888 12.3306918,15.6205522 C8.72882787,18.7762925 4.68413095,22.332931 4.30127711,22.7071536 Z M19.1317027,11.7125561 C19.5943989,11.2045737 20.5264123,10.9286703 21.1990355,11.1005383 C21.1990355,11.1005383 23.3006421,11.2022872 24.7697415,9.765608 C25.6748811,8.87959229 29.045397,5.26960225 30,3.45031666 L29.8590101,3.31312713 C27.6358873,5.49062983 23.9343178,8.8475814 23.767233,8.68447829 C23.6013167,8.52175626 27.0314222,4.89842836 29.2580503,2.72359324 L28.9799652,2.45188175 C26.7545056,4.63014662 23.0513782,7.98595494 22.8858513,7.82208966 C22.7203245,7.65860548 26.1500405,4.0368019 28.3755002,1.85968029 L28.0985835,1.58987421 C25.8731239,3.76623366 22.1699964,7.12318523 22.0044696,6.96008212 C21.835048,6.79545469 25.2674904,3.17517544 27.4941184,0.99881599 L27.2160334,0.727104506 C24.9929106,2.90536937 21.2897831,6.26232093 21.1242563,6.09921783 C20.9560031,5.93382823 24.3884455,2.31202465 26.6127367,0.136808447 L26.4744731,0 C24.613562,0.934032046 20.9256241,4.23153482 20.019316,5.11793161 C18.5478798,6.55689734 18.6553749,8.61131054 18.6553749,8.61131054 C18.831028,9.27058245 18.5478798,10.1809874 18.0298782,10.6352372 C18.0298782,10.6352372 17.1274648,11.4244581 15.7884501,12.5962853 C16.239462,12.9918484 16.7146214,13.4076089 17.1991282,13.8325154 C18.3554792,12.5627501 19.1317027,11.7125561 19.1317027,11.7125561 Z" id="Shape"></path>
                    </g>
                </g>
                <text id="DataFood.co" font-family="RobotoSlab-Regular_Bold, Roboto Slab" font-size="24" font-weight="bold" fill="#4A71E1">
                    <tspan x="58" y="35">DataFood.co</tspan>
                </text>
            </g>
        </g>
    </g>
</svg>